{
    "config": {
      "chainId": 12345,
      "homesteadBlock": 0,
      "eip150Block": 0,
      "eip155Block": 0,
      "eip158Block": 0,
      "byzantiumBlock": 0,
      "constantinopleBlock": 0,
      "petersburgBlock": 0,
      "istanbulBlock": 0,
      "berlinBlock": 0,
      "clique": {
        "period": 5,
        "epoch": 30000
      }
    },
    "difficulty": "1",
    "gasLimit": "8000000",
    "extradata": "0x00000000000000000000000000000000000000000000000000000000000000008B0B1c2714526c389b78ce89f68bF571B416B7620000000000000000000000000000000000000000000000000000000000000000000000000000000000000000000000000000000000000000000000000000000000",
    "alloc": {
      "8B0B1c2714526c389b78ce89f68bF571B416B762": { "balance": "20000000000000000000" },
      "5117376dD57E3fFD582162C7BDc703EC64B8795D": { "balance": "20000000000000000000" },
      "8c655BEFf77Da74125E5EC73F07bc83497fA9cd4": { "balance": "20000000000000000000" },
      "2CeC8D58052B59Fe461F6D6adC9e596dE0243aeE": { "balance": "20000000000000000000" },
      "32668B2a95B2F9586b805D67Ae8609a61B00efE1": { "balance": "20000000000000000000" }
    }
}